%YAML 1.1
%TAG !u! tag:unity3d.com,2011:
--- !u!114 &11400000
MonoBehaviour:
  m_ObjectHideFlags: 0
  m_CorrespondingSourceObject: {fileID: 0}
  m_PrefabInstance: {fileID: 0}
  m_PrefabAsset: {fileID: 0}
  m_GameObject: {fileID: 0}
  m_Enabled: 1
  m_EditorHideFlags: 0
  m_Script: {fileID: 11500000, guid: 05043bef683cb1b4584eabf4c9c42a7a, type: 3}
  m_Name: page1
  m_EditorClassIdentifier: 
  surveyPageTitle: Playtest Questionnaire
  surveyPageDescription: 
  surveySlots:
  - {fileID: 11400000, guid: ab5f4795aba2a2c48817efd3d2efbd45, type: 2}
  - {fileID: 11400000, guid: ea82091028c2e974fb423e530a7048f2, type: 2}
  allowBackPress: 1
  allowForwardPress: 1
  randomise: 0
