%YAML 1.1
%TAG !u! tag:unity3d.com,2011:
--- !u!114 &11400000
MonoBehaviour:
  m_ObjectHideFlags: 0
  m_CorrespondingSourceObject: {fileID: 0}
  m_PrefabInstance: {fileID: 0}
  m_PrefabAsset: {fileID: 0}
  m_GameObject: {fileID: 0}
  m_Enabled: 1
  m_EditorHideFlags: 0
  m_Script: {fileID: 11500000, guid: 8c229fc73c9837748b78c5cf53a8094d, type: 3}
  m_Name: Template
  m_EditorClassIdentifier: 
  lightDefault: {r: 0, g: 0.509953, b: 1, a: 1}
  lightAccent1: {r: 1, g: 1, b: 1, a: 1}
  lightAccent2: {r: 0.8843005, g: 0.8984331, b: 0.9056604, a: 1}
  darkDefault: {r: 0.044455323, g: 0.21103255, b: 0.3490566, a: 1}
  darkAccent1: {r: 0, g: 0, b: 0, a: 1}
  darkAccent2: {r: 0, g: 0, b: 0, a: 1}
  oddHighlight: {r: 0.8867924, g: 0.8826094, b: 0.8826094, a: 0.40392157}
  evenHighlight: {r: 0.8962264, g: 0.8962264, b: 0.8962264, a: 0.14117648}
  fontStandard: {fileID: 11400000, guid: 91e0e97699d9bc742bd5c3b661998205, type: 2}
  fontHeader: {fileID: 11400000, guid: 91e0e97699d9bc742bd5c3b661998205, type: 2}
  fontMisc1: {fileID: 11400000, guid: 91e0e97699d9bc742bd5c3b661998205, type: 2}
  fontMisc2: {fileID: 11400000, guid: 91e0e97699d9bc742bd5c3b661998205, type: 2}
  hoverCursor: {fileID: 2800000, guid: a956356a5f5fc51408af26ddc98915fb, type: 3}
  carotCursor: {fileID: 2800000, guid: 51d34eeaf576bf14fad3b3b7e006207c, type: 3}
  survey: {fileID: 4745731133892951857, guid: 3e93f9ec8c18e4c47abc59ad4bd7a5dc, type: 3}
  surveyPage: {fileID: 692434844798912456, guid: 1181e18bbed7f1140b4a64464af4843c,
    type: 3}
  container: {fileID: 2112708467387664905, guid: c8ae6c9912db8334cbf17e8bf42a96d2,
    type: 3}
  checkbox: {fileID: 5995457258067374280, guid: 73302d2f52259a542a605b923a76880f,
    type: 3}
  radialHorizontal: {fileID: 163798384748565697, guid: 9669869c1f1894e4da8be09830c6fa61,
    type: 3}
  radialVertical: {fileID: 2789083716659614835, guid: fdf8586dacfc96d44b9c0bf8e507c581,
    type: 3}
  radialVerticalImage: {fileID: 5013454428488657376, guid: ace1d87ae4b98c34493d95a4d3af5261,
    type: 3}
  inputSmall: {fileID: 6411568468001558060, guid: 4e4dbcf7c1f9878448aa07c54247afd3,
    type: 3}
  inputOneLine: {fileID: 4661609163315120786, guid: e12ce761d41ebbb4bbb36a12e238d160,
    type: 3}
  inputMultiLine: {fileID: 3675000860829539988, guid: d616bc6a1e8a5664d9fa0bd73d0f3d2d,
    type: 3}
  dropdown: {fileID: 898059175177463266, guid: 493c3baa5371d8145a316308203a7f32, type: 3}
  matrix: {fileID: 9059069303318554067, guid: b93e141040f138c46bee49216a458e01, type: 3}
  likertGroup: {fileID: 3059939492616043850, guid: e2c47923ece9abf4fab6c225d0a14c22,
    type: 3}
  rankOrder: {fileID: 1090771177664325145, guid: 3ab65799a9683fa4fa6fa5acb0bd3b35,
    type: 3}
  branchInput: {fileID: -8502786285128975869, guid: 41048d52c9fce654e957e104433f2e58,
    type: 3}
