%YAML 1.1
%TAG !u! tag:unity3d.com,2011:
--- !u!114 &11400000
MonoBehaviour:
  m_ObjectHideFlags: 0
  m_CorrespondingSourceObject: {fileID: 0}
  m_PrefabInstance: {fileID: 0}
  m_PrefabAsset: {fileID: 0}
  m_GameObject: {fileID: 0}
  m_Enabled: 1
  m_EditorHideFlags: 0
  m_Script: {fileID: 11500000, guid: cc57003402c517140a7e9ab28c0e1aec, type: 3}
  m_Name: P0 - Age
  m_EditorClassIdentifier: 
  description: How old are you? (Numbers only)
  itemReferenceKey: How old are you?
  randomise: 0
  required: 1
  inputSize: 0
  inputValidation: 0
  characterLimit: 3
  width: 300
