%YAML 1.1
%TAG !u! tag:unity3d.com,2011:
--- !u!114 &11400000
MonoBehaviour:
  m_ObjectHideFlags: 0
  m_CorrespondingSourceObject: {fileID: 0}
  m_PrefabInstance: {fileID: 0}
  m_PrefabAsset: {fileID: 0}
  m_GameObject: {fileID: 0}
  m_Enabled: 1
  m_EditorHideFlags: 0
  m_Script: {fileID: 11500000, guid: 05043bef683cb1b4584eabf4c9c42a7a, type: 3}
  m_Name: P0
  m_EditorClassIdentifier: 
  surveyPageTitle: 
  surveyPageDescription: 
  surveySlots:
  - {fileID: 11400000, guid: 5102091f8f15c4a4e89fe7591f759963, type: 2}
  - {fileID: 11400000, guid: 9929e23928e3ad9478c68647706e473a, type: 2}
  - {fileID: 11400000, guid: 40ea79f1440e47a42b584debe1ee2869, type: 2}
  - {fileID: 11400000, guid: e6c00b1b48e61cd40bd781d5a7ba020e, type: 2}
  - {fileID: 11400000, guid: a17e9e2d8186dd2488c7c17e9ab482da, type: 2}
  - {fileID: 11400000, guid: 8cddf25f95ea21a4eb8f4fdc930ed0b1, type: 2}
  allowBackPress: 1
  allowForwardPress: 1
  randomise: 0
