%YAML 1.1
%TAG !u! tag:unity3d.com,2011:
--- !u!114 &11400000
MonoBehaviour:
  m_ObjectHideFlags: 0
  m_CorrespondingSourceObject: {fileID: 0}
  m_PrefabInstance: {fileID: 0}
  m_PrefabAsset: {fileID: 0}
  m_GameObject: {fileID: 0}
  m_Enabled: 1
  m_EditorHideFlags: 0
  m_Script: {fileID: 11500000, guid: 674d2bd44b2cb6241b61fcb0b0833545, type: 3}
  m_Name: P1 - Q1 (Prosocial SelfConcept)
  m_EditorClassIdentifier: 
  description: 'Please indicate the extent to which you agree or disagree in this
    moment with the following statements:'
  itemReferenceKey: ProsocialSelfConcept
  randomise: 0
  required: 1
  headers:
  - Strongly Disagree
  - 
  - 
  - 
  - 
  - 
  - Strongly Agree
  items:
  - required: 1
    randomise: 1
    itemKey: 
    item: I am compassionate
  - required: 1
    randomise: 1
    itemKey: 
    item: I am sympathetic
  - required: 1
    randomise: 1
    itemKey: 
    item: I am warm
  - required: 1
    randomise: 1
    itemKey: 
    item: I am helpful
  itemWidth: 80
