%YAML 1.1
%TAG !u! tag:unity3d.com,2011:
--- !u!114 &11400000
MonoBehaviour:
  m_ObjectHideFlags: 0
  m_CorrespondingSourceObject: {fileID: 0}
  m_PrefabInstance: {fileID: 0}
  m_PrefabAsset: {fileID: 0}
  m_GameObject: {fileID: 0}
  m_Enabled: 1
  m_EditorHideFlags: 0
  m_Script: {fileID: 11500000, guid: e7dcebdac24beb647ad844c6d4669ff0, type: 3}
  m_Name: P2 - Q2 (Receive Reward)
  m_EditorClassIdentifier: 
  description: Did you expect a reward for helping Bruce, the thirsty stranger?
  itemReferenceKey: Did you expect a reward for helping Bruce?
  randomise: 0
  required: 1
  items:
  - Yes
  - No
  noneOfTheAbove: 0
  allOfTheAbove: 0
  otherPleaseSpecify: 0
  preSelectFirst: 0
