%YAML 1.1
%TAG !u! tag:unity3d.com,2011:
--- !u!114 &11400000
MonoBehaviour:
  m_ObjectHideFlags: 0
  m_CorrespondingSourceObject: {fileID: 0}
  m_PrefabInstance: {fileID: 0}
  m_PrefabAsset: {fileID: 0}
  m_GameObject: {fileID: 0}
  m_Enabled: 1
  m_EditorHideFlags: 0
  m_Script: {fileID: 11500000, guid: 674d2bd44b2cb6241b61fcb0b0833545, type: 3}
  m_Name: P4 - Q1 (InterestEnjoyment)
  m_EditorClassIdentifier: 
  description: 'For each of the following statements, please think about the game
    you just played and indicate how true it is for you, using the following scale:'
  itemReferenceKey: InterestEnjoyment
  randomise: 0
  required: 1
  headers:
  - Not at all true
  - 
  - 
  - Somewhat true
  - 
  - 
  - Very true
  items:
  - required: 1
    randomise: 1
    itemKey: 
    item: I enjoyed doing this activity very much.
  - required: 1
    randomise: 1
    itemKey: 
    item: This activity was fun to do.
  - required: 1
    randomise: 1
    itemKey: 
    item: I thought this was a boring activity.
  - required: 1
    randomise: 1
    itemKey: 
    item: This activity did not hold my attention at all.
  - required: 1
    randomise: 1
    itemKey: 
    item: I would describe this activity as very interesting.
  - required: 1
    randomise: 1
    itemKey: 
    item: I thought this activity was quite enjoyable.
  - required: 1
    randomise: 1
    itemKey: 
    item: While I was doing this activity, I was thinking about how much I enjoyed
      it.
  itemWidth: 80
