%YAML 1.1
%TAG !u! tag:unity3d.com,2011:
--- !u!114 &11400000
MonoBehaviour:
  m_ObjectHideFlags: 0
  m_CorrespondingSourceObject: {fileID: 0}
  m_PrefabInstance: {fileID: 0}
  m_PrefabAsset: {fileID: 0}
  m_GameObject: {fileID: 0}
  m_Enabled: 1
  m_EditorHideFlags: 0
  m_Script: {fileID: 11500000, guid: 05043bef683cb1b4584eabf4c9c42a7a, type: 3}
  m_Name: P4-IMI_IE
  m_EditorClassIdentifier: 
  surveyPageTitle: 
  surveyPageDescription: 
  surveySlots:
  - {fileID: 11400000, guid: dd769370ead855746875a55394c23fa6, type: 2}
  allowBackPress: 0
  allowForwardPress: 1
  randomise: 0
