%YAML 1.1
%TAG !u! tag:unity3d.com,2011:
--- !u!114 &11400000
MonoBehaviour:
  m_ObjectHideFlags: 0
  m_CorrespondingSourceObject: {fileID: 0}
  m_PrefabInstance: {fileID: 0}
  m_PrefabAsset: {fileID: 0}
  m_GameObject: {fileID: 0}
  m_Enabled: 1
  m_EditorHideFlags: 0
  m_Script: {fileID: 11500000, guid: 05043bef683cb1b4584eabf4c9c42a7a, type: 3}
  m_Name: P5 - Main Portion Text
  m_EditorClassIdentifier: 
  surveyPageTitle: 
  surveyPageDescription: The main portion of the study is complete. Two more questions
    remain, then a quick debrief, and any comments you have for the research team.
  surveySlots: []
  allowBackPress: 0
  allowForwardPress: 1
  randomise: 0
