%YAML 1.1
%TAG !u! tag:unity3d.com,2011:
--- !u!114 &11400000
MonoBehaviour:
  m_ObjectHideFlags: 0
  m_CorrespondingSourceObject: {fileID: 0}
  m_PrefabInstance: {fileID: 0}
  m_PrefabAsset: {fileID: 0}
  m_GameObject: {fileID: 0}
  m_Enabled: 1
  m_EditorHideFlags: 0
  m_Script: {fileID: 11500000, guid: 05043bef683cb1b4584eabf4c9c42a7a, type: 3}
  m_Name: P6 - Charity
  m_EditorClassIdentifier: 
  surveyPageTitle: 
  surveyPageDescription: 'We appreciate your participation in this study and your
    effort in answering the survey items and questions. We''d like to offer you an
    additional $4 AUD bonus compensation.


    If you''d like to donate some amount
    of this bonus compensation to charity, you can do so using the options below.


    The
    ''Against Malaria Foundation'' (https://www.againstmalaria.com/) is the charity
    that has been selected to receive the donated funds.'
  surveySlots:
  - {fileID: 11400000, guid: 6f02a80b0575b674885f1c36f7deb020, type: 2}
  allowBackPress: 0
  allowForwardPress: 1
  randomise: 0
