%YAML 1.1
%TAG !u! tag:unity3d.com,2011:
--- !u!114 &11400000
MonoBehaviour:
  m_ObjectHideFlags: 0
  m_CorrespondingSourceObject: {fileID: 0}
  m_PrefabInstance: {fileID: 0}
  m_PrefabAsset: {fileID: 0}
  m_GameObject: {fileID: 0}
  m_Enabled: 1
  m_EditorHideFlags: 0
  m_Script: {fileID: 11500000, guid: aef6b7dfbd0c2c74e81fc8b8825f077e, type: 3}
  m_Name: P6 - Q1 Charity Dropdown
  m_EditorClassIdentifier: 
  description: 
  itemReferenceKey: CharityDonation
  randomise: 0
  required: 1
  options:
  - $0.00 - Keep all
  - $0.10
  - $0.20
  - $0.30
  - $0.40
  - $0.50
  - $0.60
  - $0.70
  - $0.80
  - $0.90
  - $1.00
  - $1.10
  - $1.20
  - $1.30
  - $1.40
  - $1.50
  - $1.60
  - $1.70
  - $1.80
  - $1.90
  - $2.00
  - $2.10
  - $2.20
  - $2.30
  - $2.40
  - $2.50
  - $2.60
  - $2.70
  - $2.80
  - $2.90
  - $3.00
  - $3.10
  - $3.20
  - $3.30
  - $3.40
  - $3.50
  - $3.60
  - $3.70
  - $3.80
  - $3.90
  - $4.00 - Donate all
