%YAML 1.1
%TAG !u! tag:unity3d.com,2011:
--- !u!78 &1
TagManager:
  serializedVersion: 2
  tags:
  - Shovel
  - Log
  - Enemy
  - Bottle
  - Gas
  - Fade
  - Quit
  - CoinTotal
  - CoinChange
  layers:
  - Default
  - TransparentFX
  - Ignore Raycast
  - 
  - Water
  - UI
  - 
  - 
  - Floor
  - Shootable
  - Tree
  - Enemy
  - PostProcessing
  - 
  - 
  - 
  - 
  - 
  - 
  - 
  - 
  - 
  - 
  - 
  - 
  - 
  - 
  - 
  - 
  - 
  - 
  - 
  m_SortingLayers:
  - name: Default
    uniqueID: 0
    locked: 0
  - name: Indicators
    uniqueID: 2863976041
    locked: 0
  - name: HealthBar
    uniqueID: 3772214981
    locked: 0
