%YAML 1.1
%TAG !u! tag:unity3d.com,2011:
--- !u!114 &11400000
MonoBehaviour:
  m_ObjectHideFlags: 0
  m_CorrespondingSourceObject: {fileID: 0}
  m_PrefabInstance: {fileID: 0}
  m_PrefabAsset: {fileID: 0}
  m_GameObject: {fileID: 0}
  m_Enabled: 1
  m_EditorHideFlags: 0
  m_Script: {fileID: 11500000, guid: 05043bef683cb1b4584eabf4c9c42a7a, type: 3}
  m_Name: P1
  m_EditorClassIdentifier: 
  surveyPageTitle: Debrief
  surveyPageDescription: 'As participation in this study is completely voluntary,
    and in line with National Standards for ethics around limited disclosure, after
    learning the true aims of this study if you no longer wish for your data to be
    used you may choose to withdraw. If you wish to withdraw, indicate below and
    we will delete your responses from the data file. You will still receive Prolific
    payment only if you select one of the options below and click ''Next'' to officially
    complete the study and earn Prolific payment.


    As a show of good faith,
    now that you have been debriefed, we''d like to offer the chance to change the
    amount of bonus compensation donated to charity.'
  surveySlots:
  - {fileID: 11400000, guid: d926cc80031dee841bd7e2baffe8b678, type: 2}
  - {fileID: 11400000, guid: a27c194a53ae9864294d0f20d29e1499, type: 2}
  allowBackPress: 0
  allowForwardPress: 1
  randomise: 0
